{
	"001" : {"target":"Mocchi", "name":"Mocchi", "text":"Sial, aku ga bawa payung hari ini. Semoga hujannya cepat berhenti." },
	"002" : {"target":"Mimi", "name":"Mimi", "text":"Aku suka sekali suara hujan. Membuatku merasa sangat tenang" },
	"003" : {"target":"Riani", "name":"Riani", "text":"Payungku mana ya....perasaan tadi pagi aku masukkan ke tas. Apa iya ketinggalan di rumah... Lain kali aku harus lebih teliti" },
	"004" : {"target":"Rika", "name":"Rika", "text":"Cih..ini pasti ulah mereka. Aku harus (mumble)..(mumble)..." },
	"005" : {"target":"Leo", "name":"Leo", "text":"Kamu ngapain masih di sini? Sana cepet cari payung. Nanti keburu hujannya berhenti!" },
	"006" : {"target":"Leo", "name":"Ren", "text":"Iyaa ini juga lagi nyari, bawel banget sih" }
}