[gd_resource type="DynamicFont" load_steps=2 format=2]

[ext_resource path="res://Assets/Interface/Font/McLaren-Regular.ttf" type="DynamicFontData" id=1]

[resource]
size = 60
font_data = ExtResource( 1 )
